obj xmin, ymin, xmax, ymax
obj1  2,0.5,4,2
obj2  2,-2,4,-0.5
obj3  5,-1,6,1
obj4  5,-2.5,6,-1.6



obj5 -2.3, -1.8, -2, 1.8  
obj6  -5.5, 1.5, -2., 2.
obj7  -5.5, 0.4, -5., 1.5
obj8  -5., 0.4, -3., 1.
obj9  -5.5, -2., -4.2, -0.4
obj10 -4.2, -2., -2., -1.8

obj11  -7.,-2.,-6.,2.
 


g1 = 7,-1, math.pi/2
g2 = -4,1.25,math.pi

